1575842247376	mozrunner::runner	INFO	Running command: "/usr/bin/firefox" "-marionette" "--headless" "-foreground" "-no-remote" "-profile" "/tmp/rust_mozprofilePc5d5e"
*** You are running in headless mode.
1575842247567	addons.webextension.screenshots@mozilla.org	WARN	Loading extension 'screenshots@mozilla.org': Reading manifest: Invalid extension permission: mozillaAddons
1575842247567	addons.webextension.screenshots@mozilla.org	WARN	Loading extension 'screenshots@mozilla.org': Reading manifest: Invalid extension permission: telemetry
1575842247567	addons.webextension.screenshots@mozilla.org	WARN	Loading extension 'screenshots@mozilla.org': Reading manifest: Invalid extension permission: resource://pdf.js/
1575842247567	addons.webextension.screenshots@mozilla.org	WARN	Loading extension 'screenshots@mozilla.org': Reading manifest: Invalid extension permission: about:reader*
1575842247605	addons.xpi-utils	WARN	addMetadata: Add-on {972ce4c6-7e08-4474-a285-3208198ce6fd} is invalid: Error: File /opt/firefox/browser/extensions/{972ce4c6-7e08-4474-a285-3208198ce6fd}.xpi does not contain a valid manifest(resource://gre/modules/addons/XPIInstall.jsm:670:11) JS Stack trace: loadManifest@XPIInstall.jsm:670:11
awaitPromise@XPIProvider.jsm:226:15
syncLoadManifest@XPIInstall.jsm:754:22
addMetadata@XPIDatabase.jsm:2706:32
processFileChanges@XPIDatabase.jsm:3145:26
checkForChanges@XPIProvider.jsm:2924:55
startup@XPIProvider.jsm:2384:12
callProvider@AddonManager.jsm:215:31
_startProvider@AddonManager.jsm:651:17
startup@AddonManager.jsm:875:14
startup@AddonManager.jsm:3534:26
observe@addonManager.js:87:29
1575842247605	addons.xpi-utils	WARN	Could not uninstall invalid item from locked install location
1575842248563	Marionette	INFO	Listening on port 38767
1575842248582	Marionette	WARN	TLS certificate errors will be ignored for this session
1575846417847	mozrunner::runner	INFO	Running command: "/usr/bin/firefox" "-marionette" "--headless" "-foreground" "-no-remote" "-profile" "/tmp/rust_mozprofileus2yry"
*** You are running in headless mode.
1575846418035	addons.webextension.screenshots@mozilla.org	WARN	Loading extension 'screenshots@mozilla.org': Reading manifest: Invalid extension permission: mozillaAddons
1575846418036	addons.webextension.screenshots@mozilla.org	WARN	Loading extension 'screenshots@mozilla.org': Reading manifest: Invalid extension permission: telemetry
1575846418036	addons.webextension.screenshots@mozilla.org	WARN	Loading extension 'screenshots@mozilla.org': Reading manifest: Invalid extension permission: resource://pdf.js/
1575846418036	addons.webextension.screenshots@mozilla.org	WARN	Loading extension 'screenshots@mozilla.org': Reading manifest: Invalid extension permission: about:reader*
1575846418074	addons.xpi-utils	WARN	addMetadata: Add-on {972ce4c6-7e08-4474-a285-3208198ce6fd} is invalid: Error: File /opt/firefox/browser/extensions/{972ce4c6-7e08-4474-a285-3208198ce6fd}.xpi does not contain a valid manifest(resource://gre/modules/addons/XPIInstall.jsm:670:11) JS Stack trace: loadManifest@XPIInstall.jsm:670:11
awaitPromise@XPIProvider.jsm:226:15
syncLoadManifest@XPIInstall.jsm:754:22
addMetadata@XPIDatabase.jsm:2706:32
processFileChanges@XPIDatabase.jsm:3145:26
checkForChanges@XPIProvider.jsm:2924:55
startup@XPIProvider.jsm:2384:12
callProvider@AddonManager.jsm:215:31
_startProvider@AddonManager.jsm:651:17
startup@AddonManager.jsm:875:14
startup@AddonManager.jsm:3534:26
observe@addonManager.js:87:29
1575846418074	addons.xpi-utils	WARN	Could not uninstall invalid item from locked install location
1575846418931	Marionette	INFO	Listening on port 38697
1575846418951	Marionette	WARN	TLS certificate errors will be ignored for this session
JavaScript error: https://pamyat-naroda.ru/bitrix/templates/pn/js/build/js_libs.js?e1ea85c4b2ea2f031e73744ce8f9c0bf, line 25: QuotaExceededError: The quota has been exceeded.
JavaScript error: https://pamyat-naroda.ru/bitrix/templates/pn/js/build/js_libs.js?852e5c59a3c135dfb0377251829a50eb, line 25: QuotaExceededError: The quota has been exceeded.
JavaScript error: https://pamyat-naroda.ru/bitrix/templates/pn/js/build/js_libs.js?33c000b3add277c0fa65ec107697bec7, line 25: QuotaExceededError: The quota has been exceeded.
JavaScript error: https://pamyat-naroda.ru/bitrix/templates/pn/js/build/js_libs.js?fd32cbe694f3aa568d4aa0ca9f596208, line 25: QuotaExceededError: The quota has been exceeded.
JavaScript error: https://pamyat-naroda.ru/bitrix/templates/pn/js/build/js_libs.js?b0dfb1f0d98b7cf004a403e3953344aa, line 25: QuotaExceededError: The quota has been exceeded.
JavaScript error: https://pamyat-naroda.ru/bitrix/templates/pn/js/build/js_libs.js?6afda34a2fb1340891e5f6c021f64673, line 25: QuotaExceededError: The quota has been exceeded.
Exiting due to channel error.
1575877740312	mozrunner::runner	INFO	Running command: "/usr/bin/firefox" "-marionette" "--headless" "-foreground" "-no-remote" "-profile" "/tmp/rust_mozprofileXZ6vEW"
*** You are running in headless mode.
1575877740506	addons.webextension.screenshots@mozilla.org	WARN	Loading extension 'screenshots@mozilla.org': Reading manifest: Invalid extension permission: mozillaAddons
1575877740506	addons.webextension.screenshots@mozilla.org	WARN	Loading extension 'screenshots@mozilla.org': Reading manifest: Invalid extension permission: telemetry
1575877740506	addons.webextension.screenshots@mozilla.org	WARN	Loading extension 'screenshots@mozilla.org': Reading manifest: Invalid extension permission: resource://pdf.js/
1575877740506	addons.webextension.screenshots@mozilla.org	WARN	Loading extension 'screenshots@mozilla.org': Reading manifest: Invalid extension permission: about:reader*
1575877740544	addons.xpi-utils	WARN	addMetadata: Add-on {972ce4c6-7e08-4474-a285-3208198ce6fd} is invalid: Error: File /opt/firefox/browser/extensions/{972ce4c6-7e08-4474-a285-3208198ce6fd}.xpi does not contain a valid manifest(resource://gre/modules/addons/XPIInstall.jsm:670:11) JS Stack trace: loadManifest@XPIInstall.jsm:670:11
awaitPromise@XPIProvider.jsm:226:15
syncLoadManifest@XPIInstall.jsm:754:22
addMetadata@XPIDatabase.jsm:2706:32
processFileChanges@XPIDatabase.jsm:3145:26
checkForChanges@XPIProvider.jsm:2924:55
startup@XPIProvider.jsm:2384:12
callProvider@AddonManager.jsm:215:31
_startProvider@AddonManager.jsm:651:17
startup@AddonManager.jsm:875:14
startup@AddonManager.jsm:3534:26
observe@addonManager.js:87:29
1575877740545	addons.xpi-utils	WARN	Could not uninstall invalid item from locked install location
1575877741363	Marionette	INFO	Listening on port 41371
1575877741416	Marionette	WARN	TLS certificate errors will be ignored for this session
JavaScript warning: https://mc.yandex.ru/metrika/watch.js, line 57: Error: WebGL warning: <SetDimensions>: Can't use WebGL in headless mode (https://bugzil.la/1375585).
JavaScript warning: https://mc.yandex.ru/metrika/watch.js, line 57: Error: WebGL warning: <SetDimensions>: Failed to create WebGL context: WebGL creation failed: 
* Can't use WebGL in headless mode (https://bugzil.la/1375585).
Exiting due to channel error.
Exiting due to channel error.
1575878430240	mozrunner::runner	INFO	Running command: "/usr/bin/firefox" "-marionette" "--headless" "-foreground" "-no-remote" "-profile" "/tmp/rust_mozprofileCHaok3"
*** You are running in headless mode.
1575878430441	addons.webextension.screenshots@mozilla.org	WARN	Loading extension 'screenshots@mozilla.org': Reading manifest: Invalid extension permission: mozillaAddons
1575878430441	addons.webextension.screenshots@mozilla.org	WARN	Loading extension 'screenshots@mozilla.org': Reading manifest: Invalid extension permission: telemetry
1575878430442	addons.webextension.screenshots@mozilla.org	WARN	Loading extension 'screenshots@mozilla.org': Reading manifest: Invalid extension permission: resource://pdf.js/
1575878430442	addons.webextension.screenshots@mozilla.org	WARN	Loading extension 'screenshots@mozilla.org': Reading manifest: Invalid extension permission: about:reader*
1575878430480	addons.xpi-utils	WARN	addMetadata: Add-on {972ce4c6-7e08-4474-a285-3208198ce6fd} is invalid: Error: File /opt/firefox/browser/extensions/{972ce4c6-7e08-4474-a285-3208198ce6fd}.xpi does not contain a valid manifest(resource://gre/modules/addons/XPIInstall.jsm:670:11) JS Stack trace: loadManifest@XPIInstall.jsm:670:11
awaitPromise@XPIProvider.jsm:226:15
syncLoadManifest@XPIInstall.jsm:754:22
addMetadata@XPIDatabase.jsm:2706:32
processFileChanges@XPIDatabase.jsm:3145:26
checkForChanges@XPIProvider.jsm:2924:55
startup@XPIProvider.jsm:2384:12
callProvider@AddonManager.jsm:215:31
_startProvider@AddonManager.jsm:651:17
startup@AddonManager.jsm:875:14
startup@AddonManager.jsm:3534:26
observe@addonManager.js:87:29
1575878430480	addons.xpi-utils	WARN	Could not uninstall invalid item from locked install location
1575878431383	Marionette	INFO	Listening on port 40287
1575878431448	Marionette	WARN	TLS certificate errors will be ignored for this session
JavaScript error: https://pamyat-naroda.ru/bitrix/templates/pn/js/build/js_libs.js?675678dd326bfd012c4efda18ea5ddbc, line 25: QuotaExceededError: The quota has been exceeded.
JavaScript error: https://pamyat-naroda.ru/bitrix/templates/pn/js/build/js_libs.js?6cebdaadb33c4c6bddd31903212a9190, line 25: QuotaExceededError: The quota has been exceeded.
JavaScript error: https://pamyat-naroda.ru/bitrix/templates/pn/js/build/js_libs.js?579614472f136d71ea46c63e6d5f242b, line 25: QuotaExceededError: The quota has been exceeded.
JavaScript error: https://pamyat-naroda.ru/bitrix/templates/pn/js/build/js_libs.js?780c48f88835fe398e0028e6b5963961, line 25: QuotaExceededError: The quota has been exceeded.
JavaScript error: https://pamyat-naroda.ru/bitrix/templates/pn/js/build/js_libs.js?38b454872c5a312f3ae8d026cc25eca0, line 25: QuotaExceededError: The quota has been exceeded.
JavaScript error: https://pamyat-naroda.ru/bitrix/templates/pn/js/build/js_libs.js?a89e166f1352765f1c08d4c4d047d76d, line 25: QuotaExceededError: The quota has been exceeded.
JavaScript error: https://pamyat-naroda.ru/bitrix/templates/pn/js/build/js_libs.js?72c514312a032ef38eba2f658431bdfa, line 25: QuotaExceededError: The quota has been exceeded.
JavaScript error: https://pamyat-naroda.ru/bitrix/templates/pn/js/build/js_libs.js?172d362e137bd5a78579cf9c1f2d9842, line 25: QuotaExceededError: The quota has been exceeded.
JavaScript error: https://pamyat-naroda.ru/bitrix/templates/pn/js/build/js_libs.js?820bd4c5a70cb965aaac5b806ae02c60, line 25: QuotaExceededError: The quota has been exceeded.
JavaScript error: https://pamyat-naroda.ru/bitrix/templates/pn/js/build/js_libs.js?a5a593f976226597082f21832938160d, line 25: QuotaExceededError: The quota has been exceeded.
JavaScript warning: https://mc.yandex.ru/metrika/watch.js, line 57: Error: WebGL warning: <SetDimensions>: Can't use WebGL in headless mode (https://bugzil.la/1375585).
JavaScript warning: https://mc.yandex.ru/metrika/watch.js, line 57: Error: WebGL warning: <SetDimensions>: Failed to create WebGL context: WebGL creation failed: 
* Can't use WebGL in headless mode (https://bugzil.la/1375585).
JavaScript error: https://pamyat-naroda.ru/bitrix/templates/pn/js/build/js_libs.js?c51835b9e0eba226cccd1bbaa09d7faa, line 25: QuotaExceededError: The quota has been exceeded.
JavaScript error: https://pamyat-naroda.ru/bitrix/templates/pn/js/build/js_libs.js?a739f5fe364a6e9e35ed8e71db9d6267, line 25: QuotaExceededError: The quota has been exceeded.
JavaScript error: https://pamyat-naroda.ru/bitrix/templates/pn/js/build/js_libs.js?76fe6bb6c317a2f5b90e18fb04f23142, line 25: QuotaExceededError: The quota has been exceeded.
JavaScript error: https://pamyat-naroda.ru/bitrix/templates/pn/js/build/js_libs.js?dd3bc6a54e933427cf8c44e5f3420160, line 25: QuotaExceededError: The quota has been exceeded.
JavaScript error: https://pamyat-naroda.ru/bitrix/templates/pn/js/build/js_libs.js?82bf44e5a148af16314077294ffe0f65, line 25: QuotaExceededError: The quota has been exceeded.
JavaScript error: https://pamyat-naroda.ru/bitrix/templates/pn/js/build/js_libs.js?c4b10126ca02e6055260c5fc5b6090c4, line 25: QuotaExceededError: The quota has been exceeded.
JavaScript error: https://pamyat-naroda.ru/bitrix/templates/pn/js/build/js_libs.js?2a6bbf93edee53cd735cc215b709168f, line 25: QuotaExceededError: The quota has been exceeded.
1575963637287	mozrunner::runner	INFO	Running command: "/usr/bin/firefox" "-marionette" "--headless" "-foreground" "-no-remote" "-profile" "/tmp/rust_mozprofile6zR0gP"
*** You are running in headless mode.
1575963637537	addons.webextension.screenshots@mozilla.org	WARN	Loading extension 'screenshots@mozilla.org': Reading manifest: Invalid extension permission: mozillaAddons
1575963637537	addons.webextension.screenshots@mozilla.org	WARN	Loading extension 'screenshots@mozilla.org': Reading manifest: Invalid extension permission: telemetry
1575963637537	addons.webextension.screenshots@mozilla.org	WARN	Loading extension 'screenshots@mozilla.org': Reading manifest: Invalid extension permission: resource://pdf.js/
1575963637537	addons.webextension.screenshots@mozilla.org	WARN	Loading extension 'screenshots@mozilla.org': Reading manifest: Invalid extension permission: about:reader*
1575963637581	addons.xpi-utils	WARN	addMetadata: Add-on {972ce4c6-7e08-4474-a285-3208198ce6fd} is invalid: Error: File /opt/firefox/browser/extensions/{972ce4c6-7e08-4474-a285-3208198ce6fd}.xpi does not contain a valid manifest(resource://gre/modules/addons/XPIInstall.jsm:670:11) JS Stack trace: loadManifest@XPIInstall.jsm:670:11
awaitPromise@XPIProvider.jsm:226:15
syncLoadManifest@XPIInstall.jsm:754:22
addMetadata@XPIDatabase.jsm:2706:32
processFileChanges@XPIDatabase.jsm:3145:26
checkForChanges@XPIProvider.jsm:2924:55
startup@XPIProvider.jsm:2384:12
callProvider@AddonManager.jsm:215:31
_startProvider@AddonManager.jsm:651:17
startup@AddonManager.jsm:875:14
startup@AddonManager.jsm:3534:26
observe@addonManager.js:87:29
1575963637582	addons.xpi-utils	WARN	Could not uninstall invalid item from locked install location
1575963638535	Marionette	INFO	Listening on port 41253
1575963638590	Marionette	WARN	TLS certificate errors will be ignored for this session
1575967806018	mozrunner::runner	INFO	Running command: "/usr/bin/firefox" "-marionette" "--headless" "-foreground" "-no-remote" "-profile" "/tmp/rust_mozprofilernVSPi"
*** You are running in headless mode.
1575967806268	addons.webextension.screenshots@mozilla.org	WARN	Loading extension 'screenshots@mozilla.org': Reading manifest: Invalid extension permission: mozillaAddons
1575967806268	addons.webextension.screenshots@mozilla.org	WARN	Loading extension 'screenshots@mozilla.org': Reading manifest: Invalid extension permission: telemetry
1575967806268	addons.webextension.screenshots@mozilla.org	WARN	Loading extension 'screenshots@mozilla.org': Reading manifest: Invalid extension permission: resource://pdf.js/
1575967806268	addons.webextension.screenshots@mozilla.org	WARN	Loading extension 'screenshots@mozilla.org': Reading manifest: Invalid extension permission: about:reader*
1575967806322	addons.xpi-utils	WARN	addMetadata: Add-on {972ce4c6-7e08-4474-a285-3208198ce6fd} is invalid: Error: File /opt/firefox/browser/extensions/{972ce4c6-7e08-4474-a285-3208198ce6fd}.xpi does not contain a valid manifest(resource://gre/modules/addons/XPIInstall.jsm:670:11) JS Stack trace: loadManifest@XPIInstall.jsm:670:11
awaitPromise@XPIProvider.jsm:226:15
syncLoadManifest@XPIInstall.jsm:754:22
addMetadata@XPIDatabase.jsm:2706:32
processFileChanges@XPIDatabase.jsm:3145:26
checkForChanges@XPIProvider.jsm:2924:55
startup@XPIProvider.jsm:2384:12
callProvider@AddonManager.jsm:215:31
_startProvider@AddonManager.jsm:651:17
startup@AddonManager.jsm:875:14
startup@AddonManager.jsm:3534:26
observe@addonManager.js:87:29
1575967806322	addons.xpi-utils	WARN	Could not uninstall invalid item from locked install location
1575967807457	Marionette	INFO	Listening on port 44317
1575967807524	Marionette	WARN	TLS certificate errors will be ignored for this session
JavaScript error: https://pamyat-naroda.ru/bitrix/templates/pn/js/build/js_libs.js?616e1a729697285303835080785f50d0, line 25: QuotaExceededError: The quota has been exceeded.
Exiting due to channel error.
Exiting due to channel error.
1576673528818	mozrunner::runner	INFO	Running command: "/usr/bin/firefox" "-marionette" "--headless" "-foreground" "-no-remote" "-profile" "/tmp/rust_mozprofile7mYaCk"
*** You are running in headless mode.
1576673529094	addons.webextension.screenshots@mozilla.org	WARN	Loading extension 'screenshots@mozilla.org': Reading manifest: Invalid extension permission: mozillaAddons
1576673529094	addons.webextension.screenshots@mozilla.org	WARN	Loading extension 'screenshots@mozilla.org': Reading manifest: Invalid extension permission: telemetry
1576673529095	addons.webextension.screenshots@mozilla.org	WARN	Loading extension 'screenshots@mozilla.org': Reading manifest: Invalid extension permission: resource://pdf.js/
1576673529095	addons.webextension.screenshots@mozilla.org	WARN	Loading extension 'screenshots@mozilla.org': Reading manifest: Invalid extension permission: about:reader*
1576673530269	Marionette	INFO	Listening on port 34437
1576673530326	Marionette	WARN	TLS certificate errors will be ignored for this session
Exiting due to channel error.
Exiting due to channel error.
Sandbox: Unexpected EOF, op 0 flags 02000000 path /usr/share/locale/locale.alias
[Child 30858, Chrome_ChildThread] WARNING: pipe error (29): Connection reset by peer: file /build/firefox-AWfb_V/firefox-71.0+build5/ipc/chromium/src/chrome/common/ipc_channel_posix.cc, line 358
[Child 30858, Chrome_ChildThread] WARNING: pipe error: Broken pipe: file /build/firefox-AWfb_V/firefox-71.0+build5/ipc/chromium/src/chrome/common/ipc_channel_posix.cc, line 728
[Child 30858, Chrome_ChildThread] WARNING: pipe error (3): Connection reset by peer: file /build/firefox-AWfb_V/firefox-71.0+build5/ipc/chromium/src/chrome/common/ipc_channel_posix.cc, line 358
Exiting due to channel error.
1576673633080	mozrunner::runner	INFO	Running command: "/usr/bin/firefox" "-marionette" "--headless" "-foreground" "-no-remote" "-profile" "/tmp/rust_mozprofilecEkltp"
*** You are running in headless mode.
1576673633360	addons.webextension.screenshots@mozilla.org	WARN	Loading extension 'screenshots@mozilla.org': Reading manifest: Invalid extension permission: mozillaAddons
1576673633360	addons.webextension.screenshots@mozilla.org	WARN	Loading extension 'screenshots@mozilla.org': Reading manifest: Invalid extension permission: telemetry
1576673633360	addons.webextension.screenshots@mozilla.org	WARN	Loading extension 'screenshots@mozilla.org': Reading manifest: Invalid extension permission: resource://pdf.js/
1576673633360	addons.webextension.screenshots@mozilla.org	WARN	Loading extension 'screenshots@mozilla.org': Reading manifest: Invalid extension permission: about:reader*
1576673634437	Marionette	INFO	Listening on port 35271
1576673634484	Marionette	WARN	TLS certificate errors will be ignored for this session
JavaScript error: https://pamyat-naroda.ru/bitrix/templates/pn/js/build/js_libs.js?955e61a3675ebb8e7bd075a5808f2bbe, line 25: QuotaExceededError: The quota has been exceeded.
Exiting due to channel error.
Exiting due to channel error.
Exiting due to channel error.
1576687268492	mozrunner::runner	INFO	Running command: "/usr/bin/firefox" "-marionette" "--headless" "-foreground" "-no-remote" "-profile" "/tmp/rust_mozprofileeFEqlv"
*** You are running in headless mode.
1576687268778	addons.webextension.screenshots@mozilla.org	WARN	Loading extension 'screenshots@mozilla.org': Reading manifest: Invalid extension permission: mozillaAddons
1576687268778	addons.webextension.screenshots@mozilla.org	WARN	Loading extension 'screenshots@mozilla.org': Reading manifest: Invalid extension permission: telemetry
1576687268778	addons.webextension.screenshots@mozilla.org	WARN	Loading extension 'screenshots@mozilla.org': Reading manifest: Invalid extension permission: resource://pdf.js/
1576687268778	addons.webextension.screenshots@mozilla.org	WARN	Loading extension 'screenshots@mozilla.org': Reading manifest: Invalid extension permission: about:reader*
1576687269925	Marionette	INFO	Listening on port 42221
1576687269995	Marionette	WARN	TLS certificate errors will be ignored for this session
A content process crashed and MOZ_CRASHREPORTER_SHUTDOWN is set, shutting down
[Parent 3153, Gecko_IOThread] WARNING: pipe error (62): Connection reset by peer: file /build/firefox-AWfb_V/firefox-71.0+build5/ipc/chromium/src/chrome/common/ipc_channel_posix.cc, line 358
1576687921301	Marionette	INFO	Stopped listening on port 42221
1576689286493	mozrunner::runner	INFO	Running command: "/usr/bin/firefox" "-marionette" "--headless" "-foreground" "-no-remote" "-profile" "/tmp/rust_mozprofile5mMH1X"
*** You are running in headless mode.
1576689286761	addons.webextension.screenshots@mozilla.org	WARN	Loading extension 'screenshots@mozilla.org': Reading manifest: Invalid extension permission: mozillaAddons
1576689286761	addons.webextension.screenshots@mozilla.org	WARN	Loading extension 'screenshots@mozilla.org': Reading manifest: Invalid extension permission: telemetry
1576689286761	addons.webextension.screenshots@mozilla.org	WARN	Loading extension 'screenshots@mozilla.org': Reading manifest: Invalid extension permission: resource://pdf.js/
1576689286761	addons.webextension.screenshots@mozilla.org	WARN	Loading extension 'screenshots@mozilla.org': Reading manifest: Invalid extension permission: about:reader*
1576689287885	Marionette	INFO	Listening on port 45635
1576689287897	Marionette	WARN	TLS certificate errors will be ignored for this session
JavaScript error: https://pamyat-naroda.ru/bitrix/templates/pn/js/build/js_libs.js?257be58a480626ea0ae930442ce40b3a, line 25: QuotaExceededError: The quota has been exceeded.
JavaScript error: https://pamyat-naroda.ru/bitrix/templates/pn/js/build/js_libs.js?9931db53d8b7348010bed85b12acc42d, line 25: QuotaExceededError: The quota has been exceeded.
JavaScript error: https://pamyat-naroda.ru/bitrix/templates/pn/js/build/js_libs.js?e8fe976782d8c37422c86d9468649d1b, line 25: QuotaExceededError: The quota has been exceeded.
JavaScript error: https://pamyat-naroda.ru/bitrix/templates/pn/js/build/js_libs.js?03ba75b175ad2ca5fb22981037eb7268, line 25: QuotaExceededError: The quota has been exceeded.
JavaScript error: https://pamyat-naroda.ru/bitrix/templates/pn/js/build/js_libs.js?26e84aa4489ecbba3e79b970c3ebd1c4, line 25: QuotaExceededError: The quota has been exceeded.
JavaScript error: https://pamyat-naroda.ru/bitrix/templates/pn/js/build/js_libs.js?85c04c0bab304533abd0bde79b01e161, line 25: QuotaExceededError: The quota has been exceeded.
JavaScript error: https://pamyat-naroda.ru/bitrix/templates/pn/js/build/js_libs.js?1ef6160e103dd205531d0dbead05fafc, line 25: QuotaExceededError: The quota has been exceeded.
JavaScript error: https://pamyat-naroda.ru/bitrix/templates/pn/js/build/js_libs.js?eccd4555be3801a9569edd8daed5dbe1, line 25: QuotaExceededError: The quota has been exceeded.
JavaScript error: https://pamyat-naroda.ru/bitrix/templates/pn/js/build/js_libs.js?49acd60eec8a881ee8b8a0f3d455a1dc, line 25: QuotaExceededError: The quota has been exceeded.
JavaScript error: https://pamyat-naroda.ru/bitrix/templates/pn/js/build/js_libs.js?cfd1f936c9c9d13517264e6ea17bdda8, line 25: QuotaExceededError: The quota has been exceeded.
A content process crashed and MOZ_CRASHREPORTER_SHUTDOWN is set, shutting down
[Parent 15123, Gecko_IOThread] WARNING: pipe error (62): Connection reset by peer: file /build/firefox-AWfb_V/firefox-71.0+build5/ipc/chromium/src/chrome/common/ipc_channel_posix.cc, line 358
1576744549778	Marionette	INFO	Stopped listening on port 45635
1576745304912	mozrunner::runner	INFO	Running command: "/usr/bin/firefox" "-marionette" "--headless" "-foreground" "-no-remote" "-profile" "/tmp/rust_mozprofileptjzGH"
*** You are running in headless mode.
1576745305266	addons.webextension.screenshots@mozilla.org	WARN	Loading extension 'screenshots@mozilla.org': Reading manifest: Invalid extension permission: mozillaAddons
1576745305266	addons.webextension.screenshots@mozilla.org	WARN	Loading extension 'screenshots@mozilla.org': Reading manifest: Invalid extension permission: telemetry
1576745305266	addons.webextension.screenshots@mozilla.org	WARN	Loading extension 'screenshots@mozilla.org': Reading manifest: Invalid extension permission: resource://pdf.js/
1576745305266	addons.webextension.screenshots@mozilla.org	WARN	Loading extension 'screenshots@mozilla.org': Reading manifest: Invalid extension permission: about:reader*
1576745306559	Marionette	INFO	Listening on port 38895
1576745306621	Marionette	WARN	TLS certificate errors will be ignored for this session
JavaScript error: https://pamyat-naroda.ru/bitrix/templates/pn/js/build/js_libs.js?cf536ee1c4485ad30b392ba1fb5c221f, line 25: QuotaExceededError: The quota has been exceeded.
1576753271278	mozrunner::runner	INFO	Running command: "/usr/bin/firefox" "-marionette" "--headless" "-foreground" "-no-remote" "-profile" "/tmp/rust_mozprofilej8l8U7"
*** You are running in headless mode.
1576753271526	addons.webextension.screenshots@mozilla.org	WARN	Loading extension 'screenshots@mozilla.org': Reading manifest: Invalid extension permission: mozillaAddons
1576753271526	addons.webextension.screenshots@mozilla.org	WARN	Loading extension 'screenshots@mozilla.org': Reading manifest: Invalid extension permission: telemetry
1576753271526	addons.webextension.screenshots@mozilla.org	WARN	Loading extension 'screenshots@mozilla.org': Reading manifest: Invalid extension permission: resource://pdf.js/
1576753271526	addons.webextension.screenshots@mozilla.org	WARN	Loading extension 'screenshots@mozilla.org': Reading manifest: Invalid extension permission: about:reader*
1576753272593	Marionette	INFO	Listening on port 42125
1576753272683	Marionette	WARN	TLS certificate errors will be ignored for this session
JavaScript error: https://pamyat-naroda.ru/bitrix/templates/pn/js/build/js_libs.js?837c6a4f6c5fa8f2411e3edaf33778e8, line 25: QuotaExceededError: The quota has been exceeded.
